HW6
…
I cleaned up their dataset (added titles) so that we can use it to run some statistics.

A. Understand the dataset

Load in the words_movies.csv dataset and use some dplyr functions to print out the top 50 grossing movies. Note this dataset has movies from 1929 through 2015 so it does not have our most recent blockbuster hits

movies <- read_csv("words_movies.csv")

movies %>% 
  select(title, year, gross) %>% 
  distinct() %>% 
  arrange(desc(gross)) %>% 
  print(n=50)

## # A tibble: 2,000 x 3
##    title                                              year gross
##    <chr>                                             <dbl> <dbl>
##  1 Star Wars: Episode IV - A New Hope                 1977  1798
##  2 Titanic                                            1997  1249
##  3 Jaws                                               1975  1103
##  4 The Jungle Book                                    1967  1029
##  5 Star Wars: Episode V - The Empire Strikes Back     1980   937
##  6 Star Wars: Episode VII - The Force Awakens         2015   927
##  7 Avatar                                             2009   882
##  8 The Lion King                                      1994   880
##  9 Sleeping Beauty                                    1959   880
## 10 Star Wars: Episode VI - Return of the Jedi         1983   853
## 11 Jurassic Park                                      1993   844
## 12 The Wizard of Oz                                   1939   839
## 13 Star Wars: Episode I - The Phantom Menace          1999   813
## 14 The Sting                                          1973   786
## 15 The Godfather                                      1972   690
## 16 Forrest Gump                                       1994   686
## 17 The Avengers                                       2012   680
## 18 The Dark Knight                                    2008   645
## 19 Shrek 2                                            2004   610
## 20 Independence Day                                   1996   602
## 21 The Rocky Horror Picture Show                      1975   594
## 22 Ghostbusters                                       1984   592
## 23 Home Alone                                         1990   588
## 24 American Graffiti                                  1973   565
## 25 Pirates of the Caribbean: Dead Man's Chest         2006   561
## 26 Blazing Saddles                                    1974   558
## 27 Batman                                             1989   550
## 28 Finding Nemo                                       2003   549
## 29 Psycho                                             1960   545
## 30 The Lord of the Rings: The Return of the King      2003   543
## 31 Tootsie                                            1982   523
## 32 Spider-Man 2                                       2004   522
## 33 Back to the Future                                 1985   517
## 34 Star Wars: Episode III - Revenge of the Sith       2005   515
## 35 The Lord of the Rings: The Two Towers              2002   509
## 36 The Sixth Sense                                    1999   503
## 37 Smokey and the Bandit                              1977   495
## 38 The Dark Knight Rises                              2012   489
## 39 Harry Potter and the Sorcerer's Stone              2001   488
## 40 The Lord of the Rings: The Fellowship of the Ring  2001   482
## 41 Rocky                                              1976   477
## 42 The Poseidon Adventure                             1972   477
## 43 Twister                                            1996   476
## 44 Men in Black                                       1997   473
## 45 Indiana Jones and the Temple of Doom               1984   466
## 46 Star Wars: Episode II - Attack of the Clones       2002   465
## 47 MASH                                               1970   458
## 48 Toy Story 3                                        2010   457
## 49 Aladdin                                            1992   454
## 50 Beauty and the Beast                               1991   452
## #  with 1,950 more rows
…
